…
<https://www.gbif.org/dataset/search?type=CHECKLIST&publishing_org=1cd669d0-80ea-11de-a9d0-f1765f95f18b>

Can you do this in R? Of course. Use the rgbif function
`dataset_search()` specifying INBO’s ID as publishing organization.
Again, you get a list with two slots, `meta` and `data`. Guess where the
datasets are :-)

``` r
INBO_datasets <- dataset_search(
  publishingOrg = "1cd669d0-80ea-11de-a9d0-f1765f95f18b"
)
INBO_datasets$data
```

    ## # A tibble: 92 × 8
    ##    datasetTitle            datas…¹ type  hosti…² hosti…³ publi…⁴ publi…⁵ publi…⁶
    ##    <chr>                   <chr>   <chr> <chr>   <chr>   <chr>   <chr>   <chr>  
    ##  1 Florabank1 - A grid-ba… 271c44… OCCU… Resear… 1cd669… Resear… 1cd669… BE     
    ##  2 LBBG_ZEEBRUGGE - Lesse… 355b8f… OCCU… Resear… 1cd669… Resear… 1cd669… BE     
    ##  3 DAISIE - Inventory of … 39f36f… CHEC… Resear… 1cd669… Resear… 1cd669… BE     
    ##  4 HG_OOSTENDE - Herring … 6c860e… OCCU… Resear… 1cd669… Resear… 1cd669… BE     
    ##  5 Watervogels - Winterin… 7f9eb6… SAMP… Resear… 1cd669… Resear… 1cd669… BE     
    ##  6 RINSE - Registry of no… 3f5e93… CHEC… Resear… 1cd669… Resear… 1cd669… BE     
    ##  7 O_VLIELAND - Eurasian … cd1590… OCCU… Resear… 1cd669… Resear… 1cd669… BE     
    ##  8 Vlinderdatabank - Butt… 7888f6… OCCU… Resear… 1cd669… Resear… 1cd669… BE     
    ##  9 VIS - Fishes in inland… 823dc5… OCCU… Resear… 1cd669… Resear… 1cd669… BE     
    ## 10 Broedvogels - Atlas of… 81c5a0… OCCU… Resear… 1cd669… Resear… 1cd669… BE     
    ## # … with 82 more rows, and abbreviated variable names ¹​datasetKey,
    ## #   ²​hostingOrganization, ³​hostingOrganizationKey, ⁴​publishingOrganization,
    ## #   ⁵​publishingOrganizationKey, ⁶​publishingCountry
…
Online:
<https://www.gbif.org/dataset/search?hosting_org=1cd669d0-80ea-11de-a9d0-f1765f95f18b>

In R, by using the argument `hostingOrg` within function
`dataset_search()`:

``` r
datasets_hosted_by_inbo <- dataset_search(
  hostingOrg = "1cd669d0-80ea-11de-a9d0-f1765f95f18b",
  limit = 1000)
datasets_hosted_by_inbo$data
```

    ## # A tibble: 117 × 8
    ##    datasetTitle            datas…¹ type  hosti…² hosti…³ publi…⁴ publi…⁵ publi…⁶
    ##    <chr>                   <chr>   <chr> <chr>   <chr>   <chr>   <chr>   <chr>  
    ##  1 Waarnemingen.be - Bird… e7cbb0… OCCU… Resear… 1cd669… Natuur… 4d3cee… BE     
    ##  2 Florabank1 - A grid-ba… 271c44… OCCU… Resear… 1cd669… Resear… 1cd669… BE     
    ##  3 Waarnemingen.be - Plan… bfc6fe… OCCU… Resear… 1cd669… Natuur… 4d3cee… BE     
    ##  4 LBBG_ZEEBRUGGE - Lesse… 355b8f… OCCU… Resear… 1cd669… Resear… 1cd669… BE     
    ##  5 DAISIE - Inventory of … 39f36f… CHEC… Resear… 1cd669… Resear… 1cd669… BE     
    ##  6 Waarnemingen.be - Butt… 1f968e… OCCU… Resear… 1cd669… Natuur… 4d3cee… BE     
    ##  7 Waarnemingen.be / obse… 2c38cf… CHEC… Resear… 1cd669… Natuur… 4d3cee… BE     
    ##  8 HG_OOSTENDE - Herring … 6c860e… OCCU… Resear… 1cd669… Resear… 1cd669… BE     
    ##  9 Waarnemingen.be - Non-… 9a0b66… OCCU… Resear… 1cd669… Natuur… 4d3cee… BE     
    ## 10 Watervogels - Winterin… 7f9eb6… SAMP… Resear… 1cd669… Resear… 1cd669… BE     
    ## # … with 107 more rows, and abbreviated variable names ¹​datasetKey,
    ## #   ²​hostingOrganization, ³​hostingOrganizationKey, ⁴​publishingOrganization,
    ## #   ⁵​publishingOrganizationKey, ⁶​publishingCountry
…
