Using WFS services in R • Thierry Onkelinx
…
## Simple feature collection with 1000 features and 12 fields
## Geometry type: MULTIPOLYGON
## Dimension:     XY
## Bounding box:  xmin: 136507.8 ymin: 187356 xmax: 192040.7 ymax: 237604.4
## Projected CRS: Belge 1972 / Belgian Lambert 72
## # A tibble: 1,000 x 13
##    gml_id      OBJECTID WVLC  NAAM  OPPWVL OMTWVL SHAPE_Length SHAPE_Area DIEPKL
##    <chr>          <int> <chr> <chr>  <dbl>  <dbl>        <dbl>      <dbl> <chr> 
##  1 Watervlakk~        1 ANTB~ Zwal~   111.   52.9         52.9       111. <NA>  
##  2 Watervlakk~        2 ANTB~ <NA>   1679.  165.         165.       1679. <NA>  
##  3 Watervlakk~        3 ANTB~ <NA>   2634.  232.         232.       2634. <NA>  
##  4 Watervlakk~        4 ANTB~ <NA>    525.  156.         156.        525. <NA>  
##  5 Watervlakk~        5 ANTB~ <NA>    409.   80.0         80.0       409. <NA>  
##  6 Watervlakk~        6 ANTB~ <NA>    663.  121.         121.        663. <NA>  
##  7 Watervlakk~        7 ANTB~ <NA>   2402.  269.         269.       2402. <NA>  
##  8 Watervlakk~        8 ANTB~ <NA>   3940.  274.         274.       3940. <NA>  
##  9 Watervlakk~        9 ANTB~ <NA>    146.   46.2         46.2       146. <NA>  
## 10 Watervlakk~       10 ANTB~ <NA>   3402.  251.         251.       3402. <NA>  
## # ... with 990 more rows, and 4 more variables: GEBIED <chr>, HYLAC <int>,
## #   WTRLICHC <chr>, geometry <MULTIPOLYGON [m]>
…
gd <- map_dfr(.x = seq(0, 2000, 1000),
              .f = get_watervlakken
        )

gd

## Simple feature collection with 3000 features and 14 fields
## Geometry type: MULTIPOLYGON
## Dimension:     XY
## Bounding box:  xmin: 136507.8 ymin: 187156.5 xmax: 192040.7 ymax: 237604.4
## Projected CRS: Belge 1972 / Belgian Lambert 72
## # A tibble: 3,000 x 15
##    gml_id      OBJECTID WVLC  NAAM  OPPWVL OMTWVL SHAPE_Length SHAPE_Area DIEPKL
##  * <chr>          <int> <chr> <chr>  <dbl>  <dbl>        <dbl>      <dbl> <chr> 
##  1 Watervlakk~        1 ANTB~ Zwal~   111.   52.9         52.9       111. <NA>  
##  2 Watervlakk~        2 ANTB~ <NA>   1679.  165.         165.       1679. <NA>  
##  3 Watervlakk~        3 ANTB~ <NA>   2634.  232.         232.       2634. <NA>  
##  4 Watervlakk~        4 ANTB~ <NA>    525.  156.         156.        525. <NA>  
##  5 Watervlakk~        5 ANTB~ <NA>    409.   80.0         80.0       409. <NA>  
##  6 Watervlakk~        6 ANTB~ <NA>    663.  121.         121.        663. <NA>  
##  7 Watervlakk~        7 ANTB~ <NA>   2402.  269.         269.       2402. <NA>  
##  8 Watervlakk~        8 ANTB~ <NA>   3940.  274.         274.       3940. <NA>  
##  9 Watervlakk~        9 ANTB~ <NA>    146.   46.2         46.2       146. <NA>  
## 10 Watervlakk~       10 ANTB~ <NA>   3402.  251.         251.       3402. <NA>  
## # ... with 2,990 more rows, and 6 more variables: GEBIED <chr>, HYLAC <int>,
## #   WTRLICHC <chr>, geometry <MULTIPOLYGON [m]>, CONNECT <chr>,
## #   PEILBEHEER <chr>
…
