…
``` r
dataset
```

    ## # A tibble: 146 x 12
    ## # Groups:   region, country [84]
    ##    region country  wave Present     N      x1     x2 countrywave regionid
    ##    <fct>  <fct>   <dbl>   <int> <int>   <dbl>  <dbl> <fct>          <int>
    ##  1 1      8        1995     195  1525  0.0116  0.217 8.1995             1
    ##  2 1      8        2000     211  1500 -0.0430  0.106 8.2000             1
    ##  3 1      16       1995     623  1500  0.203  -0.175 16.1995            1
    ##  4 1      16       2000     259  1000  0.0412 -0.108 16.2000            1
    ##  5 1      16       2005     777  2015  0.120  -0.129 16.2005            1
    ##  6 1      33       1995    1210  2040  0.196   0.355 33.1995            1
    ##  7 1      33       2000    1096  2002  0.114   0.203 33.2000            1
    ##  8 1      33       2005    1157  2001  0.142   0.254 33.2005            1
    ##  9 1      34       2000     217  1004 -0.0292  0.954 34.2000            1
    ## 10 1      34       2005     527  2015  0.119   0.199 34.2005            1
    ## # ... with 136 more rows, and 3 more variables: regionid1 <int>,
    ## #   regionid2 <int>, cwave <dbl>
…
