…
Have a look at its contents by printing the object:

``` r
sac
```

    ## Simple feature collection with 616 features and 4 fields
    ## geometry type:  POLYGON
    ## dimension:      XY
    ## bbox:           xmin: 22084.25 ymin: 153207.4 xmax: 258865 ymax: 243333
    ## epsg (SRID):    NA
    ## proj4string:    +proj=lcc +lat_1=49.8333339 +lat_2=51.16666723333333 +lat_0=90 +lon_0=4.367486666666666 +x_0=150000.01256 +y_0=5400088.4378 +ellps=intl +units=m +no_defs
    ## # A tibble: 616 x 5
    ##    sac_code  sac_name       subsac_code polygon_id                      geometry
    ##    <chr>     <chr>          <chr>            <int>                 <POLYGON [m]>
    ##  1 BE2100020 Heesbossen, V… BE2100020-4          1 ((180272.3 243198.7, 180275.…
    ##  2 BE2100020 Heesbossen, V… BE2100020-2          2 ((178655.5 241042.4, 178602.…
    ##  3 BE2100024 Vennen, heide… BE2100024-…          3 ((197492.4 234451.4, 197286.…
    ##  4 BE2100015 Kalmthoutse H… BE2100015-1          4 ((153735.8 228386, 153838.5 …
    ##  5 BE2100024 Vennen, heide… BE2100024-…          5 ((198272.4 234699, 198568.8 …
    ##  6 BE2100020 Heesbossen, V… BE2100020-6          6 ((181098 233705.3, 181395.1 …
    ##  7 BE2100024 Vennen, heide… BE2100024-…          7 ((199185.8 233540.2, 199122.…
    ##  8 BE2100024 Vennen, heide… BE2100024-…          8 ((199553.4 233061.2, 199141.…
    ##  9 BE2100024 Vennen, heide… BE2100024-5          9 ((192190.9 232648.7, 192196 …
    ## 10 BE2100024 Vennen, heide… BE2100024-2         10 ((187597 231264.9, 187549.3 …
    ## # … with 606 more rows
…
``` r
habitatstreams
```

    ## Simple feature collection with 560 features and 2 fields
    ## geometry type:  LINESTRING
    ## dimension:      XY
    ## bbox:           xmin: 33097.92 ymin: 157529.6 xmax: 254039 ymax: 243444.6
    ## epsg (SRID):    NA
    ## proj4string:    +proj=lcc +lat_1=49.8333339 +lat_2=51.16666723333333 +lat_0=90 +lon_0=4.367486666666666 +x_0=150000.01256 +y_0=5400088.4378 +ellps=intl +units=m +no_defs
    ## # A tibble: 560 x 3
    ##    river_name    source                                                 geometry
    ##    <chr>         <chr>                                          <LINESTRING [m]>
    ##  1 WOLFPUTBEEK   VMM     (127857.1 167681.2, 127854.9 167684.5, 127844 167688.9…
    ##  2 OUDE KALE     VMM     (95737.01 196912.9, 95732.82 196912.4, 95710.38 196907…
    ##  3 VENLOOP       EcoInv  (169352.7 209314.9, 169358.8 209290.5, 169326.2 209283…
    ##  4 VENLOOP       EcoInv  (169633.6 209293.5, 169625 209289.2, 169594.4 209321, …
    ##  5 KLEINE NETE   EcoInv  (181087.1 208607.2, 181088.6 208608.1, 181089 208608.4…
    ##  6 KLEINE NETE   EcoInv  (180037.4 208360.4, 180038.3 208377.5, 180038.3 208378…
    ##  7 KLEINE NETE   EcoInv  (180520 208595.7, 180540.5 208607.4, 180541.2 208607.7…
    ##  8 KLEINE NETE   EcoInv  (187379.9 209998.8, 187381.3 209998.5, 187381.6 209998…
    ##  9 RAAMDONKSEBE… extrap… (183545.5 192409, 183541.9 192406.7, 183541.9 192403, …
    ## 10 KLEINE NETE   EcoInv  (183516.4 208261.7, 183567.3 208279.2, 183567.3 208279…
    ## # … with 550 more rows
…
