…
The R package [googlesheets](https://github.com/jennybc/googlesheets/blob/master/README.md) provides the functionality to retrieve data from a google sheet. Once the registration as a user is done and the permissions are granted, it enables to read and write to google sheets. Initiation of the authentification can be done with the `gs_auth` command.

``` r
gs_auth()
```

Google will ask to grant the package the permission to access your drive. This token is saved to in a file `.httr-oauth` in your current working directory. Make sure this is not part of your version control system.

Once registered, n overview of your available google sheets is provided as follows:

``` r
gs_ls()
```

    ## # A tibble: 131 × 10
    ##                 sheet_title        author  perm version
    ##                       <chr>         <chr> <chr>   <chr>
    ## 1  400+ Tools and innovati…    jeroensbox    rw     old
    ## 2  Open biodiversity data …  peter.desmet    rw     old
    ## 3   Fish tracking receivers  peter.desmet    rw     old
    ## 4      TraitsRedListSpecies     dirk.maes    rw     old
    ## 5  20150110_ramingen tim a… carlos.gooss…    rw     old
    ## 6  LifeWatch budget en uit… peter.desmet…    rw     old
    ## 7  Fish tracking transmitt…  peter.desmet    rw     old
    ## 8       T0 sources datasets sander.devis…    rw     old
    ## 9  Teambuilding_IDC_20_okt… daniel.duseu…    rw     old
    ## 10 Development Planning 20…      inbodata    rw     old
    ## # ... with 121 more rows, and 6 more variables: updated <dttm>,
    ## #   sheet_key <chr>, ws_feed <chr>, alternate <chr>, self <chr>,
    ## #   alt_key <chr>
…
