Coordinate operations and maps in R • Floris Vanderhaeghe
…
path_municipalities <- file.path(gisclubdata_path, "gemeenten_belgie.shp")
municipalities <- read_sf(path_municipalities)

It looks like this:

municipalities

Simple feature collection with 581 features and 3 fields
Geometry type: MULTIPOLYGON
Dimension:     XYZ
Bounding box:  xmin: 2.541331 ymin: 49.49695 xmax: 6.408098 ymax: 51.50511
z_range:       zmin: 0 zmax: 0
Geodetic CRS:  WGS 84
# A tibble: 581 × 4
   T_MUN_NL        Shape_Leng Shape_Area                                geometry
   <chr>                <dbl>      <dbl>                      <MULTIPOLYGON [°]>
 1 ’s Gravenbrakel      0.759    0.0108  Z (((4.095037 50.66599 0, 4.095101 50.…
 2 Aalst                0.676    0.0101  Z (((4.054666 50.99444 0, 4.054666 50.…
 3 Aalter               0.735    0.0154  Z (((3.41099 51.15987 0, 3.41275 51.15…
 4 Aarlen               0.951    0.0148  Z (((5.860749 49.72667 0, 5.860889 49.…
 5 Aarschot             0.640    0.00807 Z (((4.927684 51.03717 0, 4.92797 51.0…
 6 Aartselaar           0.265    0.00141 Z (((4.401293 51.14814 0, 4.400461 51.…
 7 Aat                  0.977    0.0163  Z (((3.756864 50.69743 0, 3.757621 50.…
 8 Affligem             0.261    0.00229 Z (((4.114181 50.92559 0, 4.115272 50.…
 9 Aiseau-Presles       0.393    0.00284 Z (((4.584122 50.43827 0, 4.584458 50.…
10 Alken                0.336    0.00361 Z (((5.275147 50.9102 0, 5.275645 50.9…
# … with 571 more rows
…
We perform similar operations on the watercourses dataset. Here, data
are already defined as two dimensions.

path_watercourses <- file.path(gisclubdata_path, "watergangen_antw.shp")
watercourses <- read_sf(path_watercourses)

watercourses

Simple feature collection with 7258 features and 14 fields
Geometry type: POLYGON
Dimension:     XY
Bounding box:  xmin: 138050.5 ymin: 201644.5 xmax: 162761.3 ymax: 230509
CRS:           NA
# A tibble: 7,258 × 15
     OIDN   UIDN VERSIE BEGINDATUM VERSDATUM   VHAG NAAM       OPNDATUM   BGNINV
    <dbl>  <dbl>  <int> <date>     <date>     <dbl> <chr>      <date>      <int>
 1 205462 492073      3 2017-07-05 2021-05-06  3320 nvt        2017-06-20     13
 2 179828 488809      2 2015-01-20 2021-05-06    -9 nvt        2014-12-02      4
 3 223031 499842      2 2018-03-28 2021-05-06 54710 Kallebeek… 2018-02-27      4
 4 267383 462960      2 2020-02-22 2021-05-06    -9 nvt        2020-01-08      4
 5  72361 481073      3 2010-11-08 2021-05-06 65101 nvt        2020-06-22      6
 6 223073 499879      3 2018-03-28 2021-05-06    -9 nvt        2018-02-27     13
 7  72079 480970      3 2010-11-08 2021-05-06 53460 nvt        2016-06-20      3
 8 145811 567202      3 2012-11-20 2021-07-07    -8 ng         2012-10-19     11
 9 205453 492064      3 2017-07-05 2021-05-06    -9 nvt        2017-06-20     10
10 269842 463401      2 2020-04-22 2021-05-06    -9 nvt        2020-04-03      4
# … with 7,248 more rows, and 6 more variables: LBLBGNINV <chr>, LENGTE <dbl>,
#   OPPERVL <dbl>, Shape_Leng <dbl>, Shape_Area <dbl>, geometry <POLYGON>
…
watercourses <- 
  watercourses %>% 
  select(polygon_id = OIDN,
         vhag_code = VHAG,
         watercourse = NAAM)

watercourses

Simple feature collection with 7258 features and 3 fields
Geometry type: POLYGON
Dimension:     XY
Bounding box:  xmin: 138050.5 ymin: 201644.5 xmax: 162761.3 ymax: 230509
CRS:           NA
# A tibble: 7,258 × 4
   polygon_id vhag_code watercourse                                     geometry
        <dbl>     <dbl> <chr>                                          <POLYGON>
 1     205462      3320 nvt           ((141976.5 222453.1, 141973.1 222449.6, 1…
 2     179828        -9 nvt           ((142200.6 205085.9, 142197.3 205085, 142…
 3     223031     54710 Kallebeekgeul ((146874.6 203777.1, 146879.3 203775.9, 1…
 4     267383        -9 nvt           ((148997 209136.1, 148996.7 209136.1, 148…
 5      72361     65101 nvt           ((141780.9 213697.8, 141780.7 213695.3, 1…
 6     223073        -9 nvt           ((144377.8 205161.2, 144408.7 205152.8, 1…
 7      72079     53460 nvt           ((140094.1 210962.7, 140093.8 210962.5, 1…
 8     145811        -8 ng            ((149004.6 209659.9, 149002.5 209666.4, 1…
 9     205453        -9 nvt           ((139682 225241.4, 139697.5 225222, 13971…
10     269842        -9 nvt           ((155762.1 207273.7, 155766.5 207273, 155…
# … with 7,248 more rows
…
Let’s transform municipalities to EPSG:31370:

municipalities_31370 <- st_transform(municipalities, "EPSG:31370")

And now…

(watercourses_comm <- st_join(watercourses, municipalities_31370))

Simple feature collection with 7502 features and 4 fields
Geometry type: POLYGON
Dimension:     XY
Bounding box:  xmin: 138050.5 ymin: 201644.5 xmax: 162761.3 ymax: 230509
Projected CRS: BD72 / Belgian Lambert 72
# A tibble: 7,502 × 5
   polygon_id vhag_code watercourse                        geometry municipality
 *      <dbl>     <dbl> <chr>                         <POLYGON [m]> <chr>       
 1     205462      3320 nvt           ((141976.5 222453.1, 141973.… Beveren     
 2     179828        -9 nvt           ((142200.6 205085.9, 142197.… Kruibeke    
 3     223031     54710 Kallebeekgeul ((146874.6 203777.1, 146879.… Kruibeke    
 4     267383        -9 nvt           ((148997 209136.1, 148996.7 … Antwerpen   
 5      72361     65101 nvt           ((141780.9 213697.8, 141780.… Beveren     
 6     223073        -9 nvt           ((144377.8 205161.2, 144408.… Kruibeke    
 7      72079     53460 nvt           ((140094.1 210962.7, 140093.… Beveren     
 8     145811        -8 ng            ((149004.6 209659.9, 149002.… Antwerpen   
 9     205453        -9 nvt           ((139682 225241.4, 139697.5 … Beveren     
10     269842        -9 nvt           ((155762.1 207273.7, 155766.… Mortsel     
# … with 7,492 more rows
…
