Read data from google sheet
…
## Auto-refreshing stale OAuth token.

Make sure the token is savely stored within your project folder without sharing it or putting it into the version control history. If you need more power (e.g. necessity of integration services such as Travis CI), check the encryption options in this manual.

Once registered, an overview of your available google sheets is provided as follows:

gs_ls()

## # A tibble: 188 × 10
##                 sheet_title        author  perm version
##                       <chr>         <chr> <chr>   <chr>
## 1  overzicht SVZ migratie … joost.sturte…    rw     old
## 2        Opleiding Git(hub) stijn.vanhoey    rw     old
## 3       Opleiding scripting maarten.stev…    rw     old
## 4  INBO A1 publications 20…  peter.desmet    rw     old
## 5  400+ Tools and innovati…    jeroensbox    rw     old
## 6       T0 sources datasets sander.devis…    rw     old
## 7             INBO en lopen gerald.louet…    rw     old
## 8                Statistics  peter.desmet    rw     old
## 9  LifeWatch budget en uit… peter.desmet…    rw     old
## 10 vergelijking fotodataba… tanja.milotic    rw     old
## # ... with 178 more rows, and 6 more variables: updated <dttm>,
## #   sheet_key <chr>, ws_feed <chr>, alternate <chr>, self <chr>,
## #   alt_key <chr>
…
