…
    ## [1] "sf"         "tbl_df"     "tbl"        "data.frame"

Let's have a look at this object:

``` r
be10grid
```

    ## Simple feature collection with 580 features and 3 fields
    ## geometry type:  POLYGON
    ## dimension:      XY
    ## bbox:           xmin: -22402.56 ymin: -1449.985 xmax: 311353.3 ymax: 305932.2
    ## epsg (SRID):    31370
    ## proj4string:    +proj=lcc +lat_1=51.16666723333333 +lat_2=49.8333339 +lat_0=90 +lon_0=4.367486666666666 +x_0=150000.013 +y_0=5400088.438 +ellps=intl +towgs84=-106.8686,52.2978,-103.7239,0.3366,-0.457,1.8422,-1.2747 +units=m +no_defs
    ## # A tibble: 580 x 4
    ##    cellcode   eoforigin noforigin                                  GEOMETRY
    ##    <chr>          <dbl>     <dbl>                             <POLYGON [m]>
    ##  1 10kmE376N~   3760000   3180000 ((-20851.02 240718.4, -21626.25 250679.5~
    ##  2 10kmE376N~   3760000   3190000 ((-21626.25 250679.5, -22402.56 260640.9~
    ##  3 10kmE377N~   3770000   3140000 ((-7781.475 201650, -8552.253 211611, 14~
    ##  4 10kmE377N~   3770000   3150000 ((-8552.253 211611, -9324.075 221572.1, ~
    ##  5 10kmE377N~   3770000   3160000 ((-9324.075 221572.1, -10096.95 231533.3~
    ##  6 10kmE377N~   3770000   3170000 ((-10096.95 231533.3, -10870.87 241494.6~
    ##  7 10kmE377N~   3770000   3180000 ((-10870.87 241494.6, -11645.85 251456.1~
    ##  8 10kmE377N~   3770000   3190000 ((-11645.85 251456.1, -12421.9 261417.9,~
    ##  9 10kmE377N~   3770000   3200000 ((-12421.9 261417.9, -13199.02 271379.8,~
    ## 10 10kmE377N~   3770000   3210000 ((-13199.02 271379.8, -13977.21 281342.1~
    ## # ... with 570 more rows
…
Resulting in:

``` r
invasive_spatial
```

    ## Simple feature collection with 513 features and 43 fields
    ## geometry type:  POINT
    ## dimension:      XY
    ## bbox:           xmin: 35125.7 ymin: 188235.3 xmax: 153743.2 ymax: 220135
    ## epsg (SRID):    31370
    ## proj4string:    +proj=lcc +lat_1=51.16666723333333 +lat_2=49.8333339 +lat_0=90 +lon_0=4.367486666666666 +x_0=150000.013 +y_0=5400088.438 +ellps=intl +towgs84=-106.8686,52.2978,-103.7239,0.3366,-0.457,1.8422,-1.2747 +units=m +no_defs
    ## # A tibble: 513 x 44
    ##    gbifID datasetKey occurrenceID kingdom phylum class order family genus
    ##     <int> <chr>      <chr>        <chr>   <chr>  <chr> <chr> <chr>  <chr>
    ##  1 1.15e9 258c9ce5-~ INBO:VIS:00~ Animal~ Arthr~ Mala~ Deca~ Pseud~ Erio~
    ##  2 1.15e9 258c9ce5-~ INBO:VIS:00~ Animal~ Arthr~ Mala~ Deca~ Pseud~ Erio~
    ##  3 1.15e9 258c9ce5-~ INBO:VIS:00~ Animal~ Arthr~ Mala~ Deca~ Pseud~ Erio~
    ##  4 1.15e9 258c9ce5-~ INBO:VIS:00~ Animal~ Arthr~ Mala~ Deca~ Pseud~ Erio~
    ##  5 1.15e9 258c9ce5-~ INBO:VIS:00~ Animal~ Arthr~ Mala~ Deca~ Pseud~ Erio~
    ##  6 1.15e9 258c9ce5-~ INBO:VIS:00~ Animal~ Arthr~ Mala~ Deca~ Pseud~ Erio~
    ##  7 1.15e9 258c9ce5-~ INBO:VIS:00~ Animal~ Arthr~ Mala~ Deca~ Pseud~ Erio~
    ##  8 1.15e9 258c9ce5-~ INBO:VIS:00~ Animal~ Arthr~ Mala~ Deca~ Pseud~ Erio~
    ##  9 1.15e9 258c9ce5-~ INBO:VIS:00~ Animal~ Arthr~ Mala~ Deca~ Pseud~ Erio~
    ## 10 1.15e9 258c9ce5-~ INBO:VIS:00~ Animal~ Arthr~ Mala~ Deca~ Pseud~ Erio~
    ## # ... with 503 more rows, and 35 more variables: species <chr>,
    ## #   infraspecificEpithet <lgl>, taxonRank <chr>, scientificName <chr>,
    ## #   countryCode <chr>, locality <lgl>, publishingOrgKey <chr>,
    ## #   coordinateUncertaintyInMeters <dbl>, coordinatePrecision <lgl>,
    ## #   elevation <lgl>, elevationAccuracy <lgl>, depth <lgl>,
    ## #   depthAccuracy <lgl>, eventDate <chr>, day <int>, month <int>,
    ## #   year <int>, taxonKey <int>, speciesKey <int>, basisOfRecord <chr>,
    ## #   institutionCode <chr>, collectionCode <lgl>, catalogNumber <lgl>,
    ## #   recordNumber <lgl>, identifiedBy <chr>, dateIdentified <lgl>,
…
